<svg width="11" height="20" viewBox="0 0 11 20" fill="none" xmlns="http://www.w3.org/2000/svg">
<path d="M1 19L10 10L1 1" stroke="#5D6676" stroke-width="2" stroke-linecap="round" stroke-linejoin="round"/>
</svg>
