<svg width="48" height="48" viewBox="0 0 48 48" fill="none" xmlns="http://www.w3.org/2000/svg">
<rect width="48" height="48" rx="4" fill="#ECECEC"/>
<path d="M41 11.0151C39.4765 12.0315 37.7897 12.8089 36.0045 13.3173C35.0464 12.2753 33.773 11.5368 32.3566 11.2016C30.9403 10.8664 29.4492 10.9507 28.0851 11.4432C26.7211 11.9356 25.5498 12.8124 24.7297 13.9549C23.9097 15.0975 23.4804 16.4506 23.5 17.8315V19.3362C20.7042 19.4047 17.9338 18.8183 15.4357 17.629C12.9375 16.4397 10.7891 14.6846 9.18182 12.5198C9.18182 12.5198 2.81818 26.0622 17.1364 32.081C13.8599 34.1846 9.95684 35.2393 6 35.0905C20.3182 42.614 37.8182 35.0905 37.8182 17.7863C37.8167 17.3672 37.7741 16.9491 37.6909 16.5374C39.3146 15.0229 40.4604 13.1108 41 11.0151V11.0151Z" stroke="#292929" stroke-width="3" stroke-linecap="round" stroke-linejoin="round"/>
</svg>
